<?xml version="1.0" standalone="no"?>
<!DOCTYPE svg PUBLIC "-//W3C//DTD SVG 1.1//EN" "http://www.w3.org/Graphics/SVG/1.1/DTD/svg11.dtd">
<svg xmlns="http://www.w3.org/2000/svg">
<metadata>Copyright (C) 2020 by original authors @ fontello.com</metadata>
<defs>
<font id="fontello" horiz-adv-x="1000" >
<font-face font-family="fontello" font-weight="400" font-stretch="normal" units-per-em="1000" ascent="850" descent="-150" />
<missing-glyph horiz-adv-x="1000" />
<glyph glyph-name="check" unicode="&#xe741;" d="M786 331v-177q0-67-47-114t-114-47h-464q-67 0-114 47t-47 114v464q0 66 47 113t114 48h464q35 0 65-14 9-4 10-13 2-10-5-16l-27-28q-6-5-13-5-1 0-5 1-13 3-25 3h-464q-37 0-63-26t-27-63v-464q0-37 27-63t63-27h464q37 0 63 27t26 63v141q0 8 5 13l36 35q6 6 13 6 3 0 7-2 11-4 11-16z m129 273l-455-454q-13-14-31-14t-32 14l-240 240q-14 13-14 31t14 32l61 62q14 13 32 13t32-13l147-147 361 361q13 13 31 13t32-13l62-61q13-14 13-32t-13-32z" horiz-adv-x="928.6" />

<glyph glyph-name="resize-small-1" unicode="&#xe746;" d="M66 672l114-116 73 74 0-210-210 0 72 72-115 115z m0-644l-66 67 115 113-72 73 210 0 0-210-73 72z m513 644l65-65-115-115 72-72-210 0 0 210 73-73z m-115-529l-73-72 0 210 210 0-72-73 115-113-65-67z" horiz-adv-x="644" />

<glyph glyph-name="logout" unicode="&#xe800;" d="M357 46q0-2 1-11t0-14-2-14-5-11-12-3h-178q-67 0-114 47t-47 114v392q0 67 47 114t114 47h178q8 0 13-5t5-13q0-2 1-11t0-15-2-13-5-11-12-3h-178q-37 0-63-26t-27-64v-392q0-37 27-63t63-27h174t6 0 7-2 4-3 4-5 1-8z m518 304q0-14-11-25l-303-304q-11-10-25-10t-25 10-11 25v161h-250q-14 0-25 11t-11 25v214q0 15 11 25t25 11h250v161q0 14 11 25t25 10 25-10l303-304q11-10 11-25z" horiz-adv-x="928.6" />

<glyph glyph-name="cancel-circled" unicode="&#xe801;" d="M641 224q0 14-10 25l-101 101 101 101q10 11 10 25 0 15-10 26l-51 50q-10 11-25 11-15 0-25-11l-101-101-101 101q-11 11-25 11-16 0-26-11l-50-50q-11-11-11-26 0-14 11-25l101-101-101-101q-11-11-11-25 0-15 11-26l50-50q10-11 26-11 14 0 25 11l101 101 101-101q10-11 25-11 15 0 25 11l51 50q10 11 10 26z m216 126q0-117-57-215t-156-156-215-58-216 58-155 156-58 215 58 215 155 156 216 58 215-58 156-156 57-215z" horiz-adv-x="857.1" />

<glyph glyph-name="cancel-circled2" unicode="&#xe802;" d="M612 248l-81-82q-6-5-13-5t-13 5l-76 77-77-77q-5-5-13-5t-12 5l-82 82q-6 6-6 13t6 13l76 76-76 77q-6 5-6 12t6 13l82 82q5 5 12 5t13-5l77-77 76 77q6 5 13 5t13-5l81-82q6-5 6-13t-6-12l-76-77 76-76q6-6 6-13t-6-13z m120 102q0 83-41 152t-110 111-152 41-153-41-110-111-41-152 41-152 110-111 153-41 152 41 110 111 41 152z m125 0q0-117-57-215t-156-156-215-58-216 58-155 156-58 215 58 215 155 156 216 58 215-58 156-156 57-215z" horiz-adv-x="857.1" />

<glyph glyph-name="eye" unicode="&#xe803;" d="M929 314q-85 132-213 197 34-58 34-125 0-103-73-177t-177-73-177 73-73 177q0 67 34 125-128-65-213-197 75-114 187-182t242-68 243 68 186 182z m-402 215q0 11-8 19t-19 7q-70 0-120-50t-50-119q0-11 8-19t19-8 19 8 8 19q0 48 34 82t82 34q11 0 19 8t8 19z m473-215q0-19-11-38-78-129-210-206t-279-77-279 77-210 206q-11 19-11 38t11 39q78 128 210 205t279 78 279-78 210-205q11-20 11-39z" horiz-adv-x="1000" />

<glyph glyph-name="upload" unicode="&#xe804;" d="M714 29q0 14-10 25t-25 10-25-10-11-25 11-25 25-11 25 11 10 25z m143 0q0 14-10 25t-26 10-25-10-10-25 10-25 25-11 26 11 10 25z m72 125v-179q0-22-16-38t-38-16h-821q-23 0-38 16t-16 38v179q0 22 16 38t38 15h238q12-31 39-51t62-20h143q34 0 61 20t40 51h238q22 0 38-15t16-38z m-182 361q-9-22-33-22h-143v-250q0-15-10-25t-25-11h-143q-15 0-25 11t-11 25v250h-143q-23 0-33 22-9 22 8 39l250 250q10 10 25 10t25-10l250-250q18-17 8-39z" horiz-adv-x="928.6" />

<glyph glyph-name="download" unicode="&#xe805;" d="M714 100q0 15-10 25t-25 11-25-11-11-25 11-25 25-11 25 11 10 25z m143 0q0 15-10 25t-26 11-25-11-10-25 10-25 25-11 26 11 10 25z m72 125v-179q0-22-16-37t-38-16h-821q-23 0-38 16t-16 37v179q0 22 16 38t38 16h259l75-76q33-32 76-32t76 32l76 76h259q22 0 38-16t16-38z m-182 318q10-23-8-39l-250-250q-10-11-25-11t-25 11l-250 250q-17 16-8 39 10 21 33 21h143v250q0 15 11 25t25 11h143q14 0 25-11t10-25v-250h143q24 0 33-21z" horiz-adv-x="928.6" />

<glyph glyph-name="attention" unicode="&#xe806;" d="M571 83v106q0 8-5 13t-12 5h-108q-7 0-12-5t-5-13v-106q0-8 5-13t12-6h108q7 0 12 6t5 13z m-1 208l10 257q0 6-5 10-7 6-14 6h-122q-6 0-14-6-5-4-5-12l9-255q0-5 6-9t13-3h103q8 0 14 3t5 9z m-7 522l428-786q20-35-1-70-9-17-26-26t-35-10h-858q-18 0-35 10t-26 26q-21 35-1 70l429 786q9 17 26 27t36 10 36-10 27-27z" horiz-adv-x="1000" />

<glyph glyph-name="search" unicode="&#xe807;" d="M680 256c-55-55-126-83-197-83-65 0-129 23-182 66l-51-125-130-130c-14-10-29-15-45-15-41 0-75 37-75 77 0 16 5 32 15 45l129 130 126 51c-44 52-66 117-66 182 0 152 127 277 279 277 150 0 277-128 277-278 0-72-26-144-80-197z m-319 75c34-33 78-50 122-50 92 0 170 77 170 172 0 93-79 170-170 170-94 0-172-79-172-170 0-45 17-89 50-122z" horiz-adv-x="760" />

<glyph glyph-name="mail" unicode="&#xe808;" d="M580 306l258-267-789 0 259 264 135-127z m-517 355l760 0-380-362z m566-309l257 242 0-508z m-629-266l0 508 259-243z" horiz-adv-x="886" />

<glyph glyph-name="anchor" unicode="&#xe809;" d="M-1 202q0 8 5 13l102 123 22-28 78-96q5-6 4-14t-7-12q-11-8-23 0l-23 19q16-60 63-101t113-54q6-1 11 0t10 7 6 20v389q0 10-6 16t-11 7l-6 1h-40q-19 0-33 13t-14 34 14 33 33 13h42q2 1 3 1t5 2 5 3 4 4 3 6 1 8v10q-31 14-49 43t-19 64q0 47 34 81t81 34 82-34 34-81q0-36-19-64t-50-43v-10q0-5 1-8t4-6 4-4 5-3 4-1 3-2h43q19 0 33-13t14-33q0-19-14-33t-33-14h-41q-2 0-6-1t-11-7-6-15v-390q0-13 6-20t11-7 10 0q67 14 114 54t63 101l-23-19q-6-5-13-4t-13 7q-8 12 0 23l78 96 21 28 103-123q4-6 4-15t-7-14q-6-5-14-5t-13 5l-30 25q-17-102-87-179t-171-102q-1-1-2-1-14-3-24-13t-14-21q-4-16-17-26t-29-10q-16 0-29 10t-16 26q-3 12-14 21t-24 13q-2 0-3 1-100 26-170 102t-88 179l-29-25q-6-6-15-5t-15 8q-5 6-5 13z m351 524q0-20 10-35v5q0 20 14 33t33 14 33-13 14-34v-5q11 16 11 35 0 23-17 40t-41 16-40-16-17-40z" horiz-adv-x="814.9" />

<glyph glyph-name="resize-full-alt" unicode="&#xe80a;" d="M0-150l0 342 119-119 278 277-276 275-121-121 0 346 342 0-119-119 277-277 275 275-121 121 346 0 0-342-119 119-277-277 275-275 121 121 0-346-342 0 119 119-277 278-275-276 121-121-346 0z" horiz-adv-x="1000" />

<glyph glyph-name="tag" unicode="&#xe80b;" d="M1000 714v-270l-595-595-405 405 595 595h270z m-160-160q28 28 28 68t-28 67-67 28-68-28-28-67 28-68 68-28 67 28z" horiz-adv-x="1000" />

<glyph glyph-name="cw" unicode="&#xe80c;" d="M408 760q168 0 287-116t123-282l122 0-184-206-184 206 144 0q-4 124-94 210t-214 86q-126 0-216-90t-90-218q0-126 90-216t216-90q104 0 182 60l70-76q-110-88-252-88-168 0-288 120t-120 290 120 290 288 120z" horiz-adv-x="940" />

<glyph glyph-name="edit" unicode="&#xe80d;" d="M496 189l64 65-85 85-64-65v-31h53v-54h32z m245 402q-9 9-18 0l-196-196q-9-9 0-18t18 0l196 196q9 9 0 18z m45-331v-106q0-67-47-114t-114-47h-464q-67 0-114 47t-47 114v464q0 66 47 113t114 48h464q35 0 65-14 9-4 10-13 2-10-5-16l-27-28q-8-8-18-4-13 3-25 3h-464q-37 0-63-26t-27-63v-464q0-37 27-63t63-27h464q37 0 63 27t26 63v70q0 7 5 12l36 36q8 8 20 4t11-16z m-54 411l161-160-375-375h-161v160z m248-73l-51-52-161 161 51 52q16 15 38 15t38-15l85-85q16-16 16-38t-16-38z" horiz-adv-x="1000" />

<glyph glyph-name="attention-circled" unicode="&#xe80e;" d="M429 779q116 0 215-58t156-156 57-215-57-215-156-156-215-58-216 58-155 156-58 215 58 215 155 156 216 58z m71-696v106q0 8-5 13t-12 5h-107q-8 0-13-5t-6-13v-106q0-8 6-13t13-6h107q7 0 12 6t5 13z m-1 192l10 346q0 7-6 10-5 5-13 5h-123q-8 0-13-5-6-3-6-10l10-346q0-6 5-10t14-4h103q8 0 13 4t6 10z" horiz-adv-x="857.1" />

<glyph glyph-name="trash-empty" unicode="&#xe80f;" d="M286 439v-321q0-8-5-13t-13-5h-36q-8 0-13 5t-5 13v321q0 8 5 13t13 5h36q8 0 13-5t5-13z m143 0v-321q0-8-5-13t-13-5h-36q-8 0-13 5t-5 13v321q0 8 5 13t13 5h36q8 0 13-5t5-13z m142 0v-321q0-8-5-13t-12-5h-36q-8 0-13 5t-5 13v321q0 8 5 13t13 5h36q7 0 12-5t5-13z m72-404v529h-500v-529q0-12 4-22t8-15 6-5h464q2 0 6 5t8 15 4 22z m-375 601h250l-27 65q-4 5-9 6h-177q-6-1-10-6z m518-18v-36q0-8-5-13t-13-5h-54v-529q0-46-26-80t-63-34h-464q-37 0-63 33t-27 79v531h-53q-8 0-13 5t-5 13v36q0 8 5 13t13 5h172l39 93q9 21 31 35t44 15h178q23 0 44-15t30-35l39-93h173q8 0 13-5t5-13z" horiz-adv-x="785.7" />

<glyph glyph-name="doc" unicode="&#xe810;" d="M819 638q16-16 27-42t11-50v-642q0-23-15-38t-38-16h-750q-23 0-38 16t-16 38v892q0 23 16 38t38 16h500q22 0 49-11t42-27z m-248 136v-210h210q-5 17-12 23l-175 175q-6 7-23 12z m215-853v572h-232q-23 0-38 16t-16 37v233h-429v-858h715z" horiz-adv-x="857.1" />

<glyph glyph-name="calendar" unicode="&#xe811;" d="M71-79h161v161h-161v-161z m197 0h178v161h-178v-161z m-197 197h161v178h-161v-178z m197 0h178v178h-178v-178z m-197 214h161v161h-161v-161z m411-411h179v161h-179v-161z m-214 411h178v161h-178v-161z m428-411h161v161h-161v-161z m-214 197h179v178h-179v-178z m-196 482v161q0 7-6 12t-12 6h-36q-7 0-12-6t-6-12v-161q0-7 6-13t12-5h36q7 0 12 5t6 13z m410-482h161v178h-161v-178z m-214 214h179v161h-179v-161z m214 0h161v161h-161v-161z m18 268v161q0 7-5 12t-13 6h-35q-7 0-13-6t-5-12v-161q0-7 5-13t13-5h35q8 0 13 5t5 13z m215 36v-715q0-29-22-50t-50-21h-786q-29 0-50 21t-21 50v715q0 29 21 50t50 21h72v54q0 37 26 63t63 26h36q37 0 63-26t26-63v-54h214v54q0 37 27 63t63 26h35q37 0 64-26t26-63v-54h71q29 0 50-21t22-50z" horiz-adv-x="928.6" />

<glyph glyph-name="edit-1" unicode="&#xe812;" d="M90 589l0-593 444 0 0 262 90 101 0-453-624 0 0 760 541 0-75-77-376 0z m749 180c35-34 32-88-3-124l-57-56 17 75-63 64-74-17 56 57c35 35 90 35 124 1z m-219-99c0 3 65 20 75 23l1 1 67-69c-4 0-23-75-23-75l-371-384-159-36-2 1 41 158z m-247-422l-45 46-35-6-23-22-10-40 46-45 39 9 23 23z" horiz-adv-x="864" />

<glyph glyph-name="resize-full" unicode="&#xe813;" d="M186 407l-113 116-73-73 0 210 210 0-72-73 115-115z m0-114l67-66-115-114 72-72-210 0 0 210 73-73z m245 114l-65 65 115 115-72 73 210 0 0-210-73 72z m115-229l73 73 0-210-210 0 72 72-115 114 65 66z" horiz-adv-x="619" />

<glyph glyph-name="up-bold" unicode="&#xe814;" d="M0 282l397 536 394-536h-216v-401h-359v401h-216z" horiz-adv-x="791" />

<glyph glyph-name="down-fat" unicode="&#xe815;" d="M5 538q13 23 53 23h147v205q0 21 16 37t37 15h304q22 0 38-15t15-37v-205h147q40 0 53-23t-7-54l-363-582q-1-2-5-6t-12-9-18-6-18 5-13 11l-4 5-363 582q-21 32-7 54z" horiz-adv-x="820.3" />

<glyph glyph-name="cancel-circled2-1" unicode="&#xe816;" d="M0 350q0 207 147 354t353 146 354-146 146-354-146-354-354-146-353 146-147 354z m109 0q0-162 115-276t276-115 276 115 115 276-115 276-276 115-276-115-115-276z m145-137l137 137-137 137 109 109 137-137 137 137 109-109-137-137 137-137-109-109-137 137-137-137z" horiz-adv-x="1000" />

<glyph glyph-name="upload-1" unicode="&#xe817;" d="M0 350q0 207 147 354t353 146 354-146 146-354-146-354-354-146-353 146-147 354z m109 0q0-162 115-276t276-115 276 115 115 276-115 276-276 115-276-115-115-276z m170 14l221 207 221-207-123 0 0-223-196 0 0 223-123 0z" horiz-adv-x="1000" />

<glyph glyph-name="exclamation" unicode="&#xe818;" d="M0 350q0 207 147 354t353 146 354-146 146-354-146-354-354-146-353 146-147 354z m318 402l79-550 207 0 78 550-364 0z m77-696q0-44 31-76t76-32 76 32 31 76-31 76-76 33-76-33-31-76z" horiz-adv-x="1000" />

<glyph glyph-name="down-open-1" unicode="&#xe819;" d="M0 526l148 148 352-351 352 351 148-148-352-352-148-148-148 148z" horiz-adv-x="1000" />

<glyph glyph-name="up-open-1" unicode="&#xe81a;" d="M0 174l352 352 148 148 148-148 352-352-148-148-352 351-352-351z" horiz-adv-x="1000" />

<glyph glyph-name="left-open-1" unicode="&#xe81b;" d="M0 350l148 149 352 351 148-148-351-352 351-352-148-148-352 352z" horiz-adv-x="648" />

<glyph glyph-name="right-open-1" unicode="&#xe81c;" d="M0-2l352 352-352 352 148 148 352-351 148-149-148-148-352-352z" horiz-adv-x="648" />

<glyph glyph-name="arrows-cw" unicode="&#xe81d;" d="M0-150l0 402 402 0-160-160q108-107 258-107 125 0 222 75t130 192l138 0q-35-173-173-288t-317-114q-207 0-353 146z m10 598q35 174 173 288t317 114q207 0 354-146l146 146 0-402-402 0 160 160q-108 107-258 107-125 0-222-75t-130-192l-138 0z" horiz-adv-x="1000" />

<glyph glyph-name="down-dir" unicode="&#xe81e;" d="M460 550l-230-400-230 400 460 0z" horiz-adv-x="460" />

<glyph glyph-name="up-dir" unicode="&#xe81f;" d="M0 150l230 400 230-400-460 0z" horiz-adv-x="460" />

<glyph glyph-name="cog" unicode="&#xe820;" d="M571 350q0 59-41 101t-101 42-101-42-42-101 42-101 101-42 101 42 41 101z m286 61v-124q0-7-4-13t-11-7l-104-16q-10-30-21-51 19-27 59-77 6-6 6-13t-5-13q-15-21-55-61t-53-39q-7 0-14 5l-77 60q-25-13-51-21-9-76-16-104-4-16-20-16h-124q-8 0-14 5t-6 12l-16 103q-27 9-50 21l-79-60q-6-5-14-5-8 0-14 6-70 64-92 94-4 5-4 13 0 6 5 12 8 12 28 37t30 40q-15 28-23 55l-102 15q-7 1-11 7t-5 13v124q0 7 5 13t10 7l104 16q8 25 22 51-23 32-60 77-6 7-6 14 0 5 5 12 15 20 55 60t53 40q7 0 15-5l77-60q24 13 50 21 9 76 17 104 3 16 20 16h124q7 0 13-5t7-12l15-103q28-9 51-20l79 59q5 5 13 5 7 0 14-5 72-67 92-95 4-5 4-12 0-7-4-13-9-12-29-37t-30-40q15-28 23-54l102-16q7-1 12-7t4-13z" horiz-adv-x="857.1" />

<glyph glyph-name="cog-alt" unicode="&#xe821;" d="M500 350q0 59-42 101t-101 42-101-42-42-101 42-101 101-42 101 42 42 101z m429-286q0 29-22 51t-50 21-50-21-21-51q0-29 21-50t50-21 51 21 21 50z m0 572q0 29-22 50t-50 21-50-21-21-50q0-30 21-51t50-21 51 21 21 51z m-215-235v-103q0-6-4-11t-8-6l-87-14q-6-19-18-42 19-27 50-64 4-6 4-11 0-7-4-11-12-17-46-50t-43-33q-7 0-12 4l-64 50q-21-11-43-17-6-60-13-87-4-13-17-13h-104q-6 0-11 4t-5 10l-13 85q-19 6-42 18l-66-50q-4-4-11-4-6 0-12 4-80 75-80 90 0 5 4 10 5 8 23 30t26 34q-13 24-20 46l-85 13q-5 1-9 5t-4 11v104q0 5 4 10t9 6l86 14q7 19 18 42-19 27-50 64-4 6-4 11 0 7 4 12 12 16 46 49t44 33q6 0 12-4l64-50q19 10 43 18 6 60 13 86 3 13 16 13h104q6 0 11-4t6-10l13-85q19-6 42-17l65 49q5 4 12 4 6 0 11-4 81-75 81-90 0-4-4-10-7-9-24-30t-25-34q13-27 19-46l85-12q6-2 9-6t4-11z m357-298v-78q0-9-83-17-6-15-16-29 28-63 28-77 0-2-2-4-68-40-69-40-5 0-26 27t-29 37q-11-1-17-1t-17 1q-7-11-29-37t-25-27q-1 0-69 40-3 2-3 4 0 14 29 77-10 14-17 29-83 8-83 17v78q0 9 83 18 7 16 17 29-29 63-29 77 0 2 3 4 2 1 19 11t33 19 17 9q4 0 25-26t29-38q12 1 17 1t17-1q28 40 51 63l4 1q2 0 69-39 2-2 2-4 0-14-28-77 9-13 16-29 83-9 83-18z m0 572v-78q0-9-83-18-6-15-16-29 28-63 28-77 0-2-2-4-68-39-69-39-5 0-26 26t-29 38q-11-1-17-1t-17 1q-7-12-29-38t-25-26q-1 0-69 39-3 2-3 4 0 14 29 77-10 14-17 29-83 9-83 18v78q0 9 83 17 7 16 17 29-29 63-29 77 0 2 3 4 2 1 19 11t33 19 17 9q4 0 25-26t29-37q12 1 17 1t17-1q28 39 51 62l4 1q2 0 69-39 2-2 2-4 0-14-28-77 9-13 16-29 83-8 83-17z" horiz-adv-x="1071.4" />

<glyph glyph-name="down-dir-1" unicode="&#xe822;" d="M571 457q0-14-10-25l-250-250q-11-11-25-11t-25 11l-250 250q-11 11-11 25t11 25 25 11h500q14 0 25-11t10-25z" horiz-adv-x="571.4" />

<glyph glyph-name="up-dir-1" unicode="&#xe823;" d="M571 171q0-14-10-25t-25-10h-500q-15 0-25 10t-11 25 11 26l250 250q10 10 25 10t25-10l250-250q10-11 10-26z" horiz-adv-x="571.4" />

<glyph glyph-name="down-open-2" unicode="&#xe824;" d="M939 399l-414-413q-10-11-25-11t-25 11l-414 413q-11 11-11 26t11 25l93 92q10 11 25 11t25-11l296-296 296 296q11 11 25 11t26-11l92-92q11-11 11-25t-11-26z" horiz-adv-x="1000" />

<glyph glyph-name="right-open-2" unicode="&#xe825;" d="M618 361l-414-415q-11-10-25-10t-25 10l-93 93q-11 11-11 25t11 25l296 297-296 296q-11 11-11 25t11 25l93 93q10 11 25 11t25-11l414-414q10-11 10-25t-10-25z" horiz-adv-x="714.3" />

<glyph glyph-name="left-open-2" unicode="&#xe826;" d="M654 682l-297-296 297-297q10-10 10-25t-10-25l-93-93q-11-10-25-10t-25 10l-414 415q-11 10-11 25t11 25l414 414q10 11 25 11t25-11l93-93q10-10 10-25t-10-25z" horiz-adv-x="714.3" />

<glyph glyph-name="up-open-2" unicode="&#xe827;" d="M939 107l-92-92q-11-10-26-10t-25 10l-296 297-296-297q-11-10-25-10t-25 10l-93 92q-11 11-11 26t11 25l414 414q11 10 25 10t25-10l414-414q11-11 11-25t-11-26z" horiz-adv-x="1000" />

<glyph glyph-name="plus" unicode="&#xe828;" d="M729 454q44 0 74-31t31-73-31-73-74-30l-208 3 0-212q0-43-30-73t-75-31-73 31-30 73l3 212-212-3q-44 0-74 30t-30 73 30 73 74 31l212 0-3 209q0 42 30 73t73 31 75-31 30-73l0-209 208 0z" horiz-adv-x="834" />

<glyph glyph-name="compass" unicode="&#xe829;" d="M0 350q0 207 146 353t354 146 353-146 146-353-146-354-353-146-354 146-146 354z m125 0q0-154 110-265t265-110 263 109q112 112 112 266t-111 264-264 111-265-111-110-264z m187-188l125 250 250 125-125-250z" horiz-adv-x="1000" />

<glyph glyph-name="resize-full-alt-1" unicode="&#xe82a;" d="M839 55l72 72 0-224-223 0 72 72-184 185 79 79z m-749 591l-72-72 0 223 223 0-72-72 184-184-79-79z m670 79l-72 72 223 0 0-223-72 72-184-184-79 79z m-407-565l-184-185 72-72-223 0 0 224 72-72 184 184z" horiz-adv-x="928" />

<glyph glyph-name="tag-1" unicode="&#xe82b;" d="M0 483l0 287q2 31 24 54t52 22l287 0q88-6 133-55l426-472q19-28 19-58t-19-52l-334-334q-25-21-57-21t-52 21l-424 475q-55 64-55 133z m125 164q2-31 23-52t51-20q32 0 52 22t21 50q0 33-23 54t-50 20q-33-2-53-23t-21-51z" horiz-adv-x="941" />

<glyph glyph-name="edit-2" unicode="&#xe82c;" d="M0-150l0 818 188 182 521 0 0-226 31 31 162-160-380-381-239-78 76 238 262 262 0 226-369 0 0-156-164 0 0-668 533 0 0 143 88 87 0-318-709 0z m361 264l119 39-80 82z" horiz-adv-x="902" />

<glyph glyph-name="compass-1" unicode="&#xe82d;" d="M0 349q0 188 134 322t322 134 321-134 133-322-133-321-321-133-322 133-134 321z m63 1q0-162 115-277t277-116 277 116 116 277-116 277-277 116-277-116-115-277z m138-234l186 302 302 186 20-22-184-302-302-184z" horiz-adv-x="910" />

<glyph glyph-name="cogs" unicode="&#xe82e;" d="M0 245l0 97 94 8q8 30 23 55l-60 74 68 69 74-61q26 16 55 23l8 94 97 0 10-94q29-7 55-23l74 61 68-69-60-74q16-25 23-55l94-8 0-97-94-10q-7-29-23-55l60-72-68-70-74 60q-26-15-55-23l-10-94-97 0-8 94q-29 8-55 23l-74-60-68 70 60 72q-15 26-23 55z m221 49q0-37 26-64t64-26 63 26 26 64-26 63-63 26-64-26-26-63z m318 238l8 72 70-2q8 22 20 39l-37 57 54 45 49-49q20 10 41 14l14 66 72-8-2-68q22-8 39-22l57 39 45-54-49-49q10-20 12-43l68-14-8-70-68 0q-8-20-22-37l39-59-56-45-47 49q-22-8-43-12l-14-66-70 6 0 70q-20 8-37 20l-59-37-45 54 49 49q-8 20-12 41z m31-445l6 50 49 0q6 16 14 28l-26 43 37 33 36-37q13 8 29 10l10 48 48-5 0-49q16-6 28-16l41 27 31-41-35-35q6-13 10-29l47-12-6-51-49 0q-4-15-14-27l28-43-40-33-35 37q-13-8-29-10l-10-49-49 6 0 51q-13 4-27 14l-41-28-31 41 35 36q-6 13-8 29z m118 13q-4-21 8-36t32-17 34 9 17 34-10 35-31 18l-6 0q-17 0-31-12t-13-31z m17 451q-4-27 14-48t45-25 48 15 23 45-14 48-44 24l-7 0q-26 0-44-17t-21-42z" horiz-adv-x="1000" />

<glyph glyph-name="up" unicode="&#xe82f;" d="M0 264l391 586 390-586-211 0 0-414-359 0 0 414-211 0z" horiz-adv-x="781" />

<glyph glyph-name="thumbs-up" unicode="&#xe830;" d="M143 100q0 15-11 25t-25 11-25-11-11-25 11-25 25-11 25 11 11 25z m643 321q0 29-22 50t-50 22h-196q0 32 27 89t26 89q0 55-17 81t-72 27q-14-15-21-48t-17-70-33-61q-13-13-43-51-2-3-13-16t-18-23-19-24-22-25-22-19-22-15-20-6h-18v-357h18q7 0 18-1t18-4 21-6 20-7 20-6 16-6q118-41 191-41h67q107 0 107 93 0 15-2 31 16 9 26 30t10 41-10 38q29 28 29 67 0 14-5 31t-14 26q18 1 30 26t12 45z m71 1q0-50-27-91 5-18 5-38 0-43-21-81 1-12 1-24 0-56-33-99 0-78-48-123t-126-45h-72q-54 0-106 13t-121 36q-65 23-77 23h-161q-29 0-50 21t-21 50v357q0 30 21 51t50 21h153q20 13 77 86 32 42 60 72 13 14 19 48t17 70 35 60q22 21 50 21 47 0 84-18t57-57 20-104q0-51-27-107h98q58 0 101-42t42-100z" horiz-adv-x="857.1" />

<glyph glyph-name="lock" unicode="&#xe831;" d="M179 421h285v108q0 59-42 101t-101 41-101-41-41-101v-108z m464-53v-322q0-22-16-37t-38-16h-535q-23 0-38 16t-16 37v322q0 22 16 38t38 15h17v108q0 102 74 176t176 74 177-74 73-176v-108h18q23 0 38-15t16-38z" horiz-adv-x="642.9" />

<glyph glyph-name="lock-open" unicode="&#xe832;" d="M929 529v-143q0-15-11-25t-25-11h-36q-14 0-25 11t-11 25v143q0 59-41 101t-101 41-101-41-42-101v-108h53q23 0 38-15t16-38v-322q0-22-16-37t-38-16h-535q-23 0-38 16t-16 37v322q0 22 16 38t38 15h375v108q0 103 73 176t177 74 176-74 74-176z" horiz-adv-x="928.6" />

<glyph glyph-name="thumbs-down" unicode="&#xe833;" d="M143 600q0 15-11 25t-25 11-25-11-11-25 11-25 25-11 25 11 11 25z m643-321q0 19-12 45t-30 26q8 10 14 27t5 31q0 38-29 66 10 17 10 38 0 21-10 41t-26 30q2 16 2 31 0 47-27 70t-76 23h-71q-73 0-191-41-3-1-16-5t-20-7-20-7-21-6-18-4-18-1h-18v-357h18q9 0 20-5t22-15 22-20 22-25 19-24 18-22 13-17q30-38 43-51 23-24 33-61t17-70 21-48q54 0 72 27t17 81q0 33-26 89t-27 89h196q28 0 50 22t22 50z m71-1q0-57-42-100t-101-42h-98q27-55 27-107 0-66-20-104-19-39-57-57t-84-18q-28 0-50 21-19 18-30 45t-14 51-10 47-17 36q-27 28-60 71-57 73-77 86h-153q-29 0-50 21t-21 51v357q0 29 21 50t50 21h161q12 0 77 23 72 24 125 36t111 13h63q78 0 126-44t48-121v-3q33-43 33-99 0-12-1-24 21-38 21-80 0-21-5-39 27-41 27-91z" horiz-adv-x="857.1" />

<glyph glyph-name="bell" unicode="&#xe834;" d="M509-96q0 8-9 8-33 0-57 24t-23 57q0 9-9 9t-9-9q0-41 29-70t69-28q9 0 9 9z m-372 160h726q-149 168-149 465 0 28-13 58t-39 58-67 45-95 17-95-17-67-45-39-58-13-58q0-297-149-465z m827 0q0-29-21-50t-50-21h-250q0-59-42-101t-101-42-101 42-42 101h-250q-29 0-50 21t-21 50q28 24 51 49t47 67 42 89 27 115 11 145q0 84 66 157t171 89q-5 10-5 21 0 23 16 38t38 16 38-16 16-38q0-11-5-21 106-16 171-89t66-157q0-78 11-145t28-115 41-89 48-67 50-49z" horiz-adv-x="1000" />

<glyph glyph-name="resize-small" unicode="&#xe835;" d="M429 314v-250q0-14-11-25t-25-10-25 10l-81 81-185-186q-5-5-13-5t-12 5l-64 64q-6 6-6 13t6 13l185 185-80 80q-11 11-11 25t11 25 25 11h250q14 0 25-11t11-25z m421 375q0-7-6-12l-185-186 80-80q11-11 11-25t-11-25-25-11h-250q-14 0-25 11t-10 25v250q0 14 10 25t25 10 25-10l81-80 185 185q6 5 13 5t13-5l63-64q6-5 6-13z" horiz-adv-x="857.1" />

<glyph glyph-name="resize-full-1" unicode="&#xe836;" d="M421 261q0-7-5-13l-185-185 80-81q10-10 10-25t-10-25-25-11h-250q-15 0-25 11t-11 25v250q0 15 11 25t25 11 25-11l80-80 186 185q5 6 12 6t13-6l64-63q5-6 5-13z m436 482v-250q0-15-10-25t-26-11-25 11l-80 80-185-185q-6-6-13-6t-13 6l-64 64q-5 5-5 12t5 13l186 185-81 81q-10 10-10 25t10 25 25 11h250q15 0 26-11t10-25z" horiz-adv-x="857.1" />

<glyph glyph-name="right-hand" unicode="&#xe837;" d="M143 100q0 15-11 25t-25 11-25-11-11-25 11-25 25-11 25 11 11 25z m786 321q0 29-22 50t-50 22h-321q0 11 8 27t19 31 18 38 8 47q0 37-24 54t-65 17q-13 0-50-77-14-25-21-37-22-35-62-81-40-45-57-59-38-32-78-32h-18v-357h18q40 0 93-18t108-35 101-18q105 0 105 93 0 15-3 31 17 9 27 30t9 41-10 38q30 28 30 67 0 14-6 31t-14 26h185q29 0 50 21t22 50z m71 1q0-59-42-101t-101-42h-94q-2-35-21-67 2-12 2-24 0-56-34-99 1-78-47-123t-127-45q-74 0-179 39-92 33-125 33h-161q-29 0-50 21t-21 50v357q0 30 21 51t50 21h161q6 0 12 2t13 8 13 10 13 13 12 12 10 12 8 9q36 42 56 72 7 12 18 35t21 40 23 35 30 28 39 10q70 0 115-38t46-105q0-38-13-72h209q58 0 101-42t42-100z" horiz-adv-x="1000" />

<glyph glyph-name="left-hand" unicode="&#xe838;" d="M768 64h18v357h-18q-20 0-38 7t-35 21-28 25-27 31q-4 5-7 7-40 46-62 81-8 13-21 38-1 2-6 13t-10 20-12 20-12 17-10 6q-40 0-64-17t-25-54q0-24 8-47t19-38 18-31 8-27h-321q-28 0-50-22t-22-50q0-29 22-50t50-21h185q-9-9-14-26t-6-31q0-39 30-67-10-18-10-38t9-41 27-30q-2-13-2-31 0-47 27-70t75-23q47 0 102 18t109 35 93 18z m161 36q0 15-11 25t-25 11-25-11-11-25 11-25 25-11 25 11 11 25z m71 321v-357q0-29-21-50t-50-21h-161q-33 0-125-33-106-39-176-39-80 0-129 44t-48 121l0 3q-34 42-34 99 0 12 2 24-19 32-21 67h-94q-59 0-101 42t-42 101q0 58 42 100t101 42h209q-13 34-13 72 0 68 46 105t115 38q21 0 39-10t31-28 22-35 21-40 18-35q20-30 56-72 1-1 8-9t10-12 12-12 13-13 13-10 13-8 12-2h161q29 0 50-21t21-51z" horiz-adv-x="1000" />

<glyph glyph-name="up-hand" unicode="&#xe839;" d="M714-43q0 15-10 25t-25 11-25-11-11-25 11-25 25-11 25 11 10 25z m72 427q0 105-93 105-15 0-32-3-9 17-29 27t-41 9-38-10q-28 30-67 30-14 0-31-6t-26-14v185q0 29-22 50t-50 22q-28 0-50-22t-21-50v-321q-11 0-27 8t-31 19-38 18-47 8q-37 0-55-24t-17-65q0-13 78-50 25-14 36-21 36-22 81-62 45-40 59-57 32-38 32-78v-18h357v18q0 40 18 93t36 108 18 101z m71 2q0-74-38-179-33-92-33-125v-161q0-29-21-50t-51-21h-357q-29 0-50 21t-21 50v161q0 6-3 12t-8 13-10 13-12 13-12 12-12 10-10 8q-41 36-72 56-11 7-34 18t-40 21-36 23-27 30-10 39q0 70 37 115t106 46q38 0 71-13v209q0 58 43 101t100 42q58 0 101-42t42-101v-94q35-2 66-21 12 2 24 2 57 0 100-34 77 1 122-47t45-127z" horiz-adv-x="857.1" />

<glyph glyph-name="tags-3" unicode="&#xe839;" d="M1011 502q30-32 30-74t-30-73l-56-56 5-5q30-31 29-74t-30-73l-364-366q-30-30-74-30t-73 30q-227 227-342 338-106 106-106 258 0 102 54 188-8 165 105 278 106 106 257 106 153 0 259-106z m-490-647l364 365-336 340q-76 77-184 77-109 0-185-77t-76-183 76-184q115-111 341-338z m102 779l258-261 57 56-337 340q-76 76-185 76-107 0-183-76-35-35-54-79 86 52 186 52 150 0 258-108z m-258-179q-32 0-56-23t-23-55 23-55 56-23 55 23 23 55-23 55-55 23z m0 52q54 0 92-39t38-91-38-92-92-38-92 38-38 92 38 91 92 39z" horiz-adv-x="1041" />

<glyph glyph-name="down-hand" unicode="&#xe83a;" d="M786 314q0 47-18 102t-36 109-18 93v18h-357v-18q0-20-7-38t-20-35-26-28-30-27q-5-4-8-7-45-40-81-62-12-8-38-21-1-1-12-6t-20-10-20-12-17-12-7-10q0-40 17-64t55-25q24 0 47 8t38 19 31 18 27 8v-321q0-28 21-50t50-22q29 0 50 22t22 50v185q25-20 57-20 39 0 67 30 17-10 38-10t41 9 29 27q14-2 32-2 47 0 70 27t23 75z m-72 429q0 14-10 25t-25 11-25-11-11-25 11-25 25-11 25 11 10 25z m143-426q0-80-43-129t-121-48l-3 0q-43-34-100-34-12 0-24 2-30-17-66-21v-94q0-59-42-101t-101-42q-58 0-100 42t-43 101v209q-30-13-71-13-68 0-105 46t-38 115q0 21 10 39t27 31 36 22 40 21 34 18q31 20 72 56 2 1 10 8t12 10 12 12 12 13 10 13 8 13 3 12v161q0 29 21 50t50 21h357q30 0 51-21t21-50v-161q0-33 33-125 38-106 38-176z" horiz-adv-x="857.1" />

<glyph glyph-name="eye-off" unicode="&#xe83b;" d="M310 105l43 79q-48 35-76 88t-27 114q0 67 34 125-128-65-213-197 94-144 239-209z m217 424q0 11-8 19t-19 7q-70 0-120-50t-50-119q0-11 8-19t19-8 19 8 8 19q0 48 34 82t82 34q11 0 19 8t8 19z m202 106q0-4 0-5-59-105-176-316t-176-316l-28-50q-5-9-15-9-7 0-75 39-9 6-9 16 0 7 25 49-80 36-147 96t-117 137q-11 17-11 38t11 39q86 131 212 207t277 76q50 0 100-10l31 54q5 9 15 9 3 0 10-3t18-9 18-10 18-10 10-7q9-5 9-15z m21-249q0-78-44-142t-117-91l157 280q4-25 4-47z m250-72q0-19-11-38-22-36-61-81-84-96-194-149t-234-53l41 74q119 10 219 76t169 171q-65 100-158 164l35 63q53-36 102-85t81-103q11-19 11-39z" horiz-adv-x="1000" />

<glyph glyph-name="arrows-cw-1" unicode="&#xe83c;" d="M843 261q0-3 0-4-36-150-150-243t-267-93q-81 0-157 31t-136 88l-72-72q-11-11-25-11t-25 11-11 25v250q0 14 11 25t25 11h250q14 0 25-11t10-25-10-25l-77-77q40-36 90-57t105-20q74 0 139 37t104 99q6 10 30 66 4 13 16 13h107q8 0 13-6t5-12z m14 446v-250q0-14-10-25t-26-11h-250q-14 0-25 11t-10 25 10 25l77 77q-82 77-194 77-75 0-140-37t-104-99q-6-10-29-66-5-13-17-13h-111q-7 0-13 6t-5 12v4q36 150 151 243t268 93q81 0 158-31t137-88l72 72q11 11 25 11t26-11 10-25z" horiz-adv-x="857.1" />

<glyph glyph-name="resize-small-alt" unicode="&#xe83d;" d="M648 88l-72-72 0 223 223 0-72-72 184-185-79-79z m-448 447l-182 183 79 79 183-182 73 70-1-222-222-1z m-182-553l184 185-72 72 223 0 0-223-72 72-184-185z m782 480l-224 0 0 225 73-72 183 182 79-79-183-183z" horiz-adv-x="928" />

<glyph glyph-name="tags" unicode="&#xe83e;" d="M250 600q0 30-21 51t-50 20-51-20-21-51 21-50 51-21 50 21 21 50z m595-321q0-30-20-51l-274-274q-22-21-51-21-30 0-50 21l-399 399q-21 21-36 57t-15 65v232q0 29 21 50t50 22h233q29 0 65-15t57-36l399-399q20-21 20-50z m215 0q0-30-21-51l-274-274q-22-21-51-21-20 0-33 8t-29 25l262 262q21 21 21 51 0 29-21 50l-399 399q-21 21-57 36t-65 15h125q29 0 65-15t57-36l399-399q21-21 21-50z" horiz-adv-x="1071.4" />

<glyph glyph-name="tags-4" unicode="&#xe83f;" d="M0 460l0 240q2 27 21 46t43 19l241 0q43 0 88-28l377-414q17-23 17-48t-17-44l-280-277q-21-18-47-19t-43 19l-355 397q-45 54-45 109z m104 138q0-25 17-42 22-20 46-19t42 19q18 19 18 44t-18 43q-20 18-45 17t-43-17q-17-21-17-45z m316 165l92 0q72-4 109-45l356-397q17-21 17-48t-17-44l-280-277q-60-35-95 8l271 271q18 22 18 47t-18 45l-318 356q-24 31-71 56t-64 28z" horiz-adv-x="994" />

<glyph glyph-name="down-open" unicode="&#xf004;" d="M0 533q0 25 18 43t44 18 42-18l305-303 304 303q18 18 43 18t43-18q18-18 18-43t-18-43l-390-391-391 391q-18 19-18 43z" horiz-adv-x="817.4" />

<glyph glyph-name="up-open" unicode="&#xf005;" d="M0 167q0 26 18 43l391 391 390-391q17-17 17-43 0-26-17-44-18-17-44-17t-43 17l-303 305-305-305q-18-17-43-17t-43 17q-18 18-18 44z" horiz-adv-x="816.9" />

<glyph glyph-name="right-open" unicode="&#xf006;" d="M0 0q0 25 18 43l305 304-305 304q-18 18-18 44t18 43 44 18 43-18l390-391-390-391q-19-18-43-18t-44 18q-18 18-18 44z" horiz-adv-x="495.1" />

<glyph glyph-name="left-open" unicode="&#xf007;" d="M0 353l391 391q18 18 43 18 24 0 43-18 18-18 18-44t-18-43l-304-304 304-305q18-17 18-43t-18-43q-18-18-43-18t-43 18z" horiz-adv-x="495.1" />

<glyph glyph-name="move" unicode="&#xf047;" d="M1000 350q0-14-11-25l-142-143q-11-11-26-11t-25 11-10 25v72h-215v-215h72q14 0 25-10t11-25-11-25l-143-143q-10-11-25-11t-25 11l-143 143q-11 10-11 25t11 25 25 10h72v215h-215v-72q0-14-10-25t-25-11-25 11l-143 143q-11 11-11 25t11 25l143 143q10 11 25 11t25-11 10-25v-72h215v215h-72q-14 0-25 10t-11 25 11 26l143 142q11 11 25 11t25-11l143-142q11-11 11-26t-11-25-25-10h-72v-215h215v72q0 14 10 25t25 11 26-11l142-143q11-10 11-25z" horiz-adv-x="1000" />

<glyph glyph-name="info-circled-alt" unicode="&#xf086;" d="M0 350q0 95 37 182t100 149 149 100 183 37q95 0 182-37t149-100 100-149 37-182q0-95-37-182t-100-150-149-100-182-37q-96 0-183 37t-149 100-100 150-37 182z m117 0q0-71 28-137t75-112 112-75 137-28 136 28 112 75 75 112 28 137-28 136-75 112-112 75-136 28-137-28-112-75-75-112-28-136z m281 170q0 28 20 45t51 17q32 0 51-17t19-45-19-46-51-17q-32 0-51 17t-20 46z m5-402v299h132v-299h-132z" horiz-adv-x="937.5" />

<glyph glyph-name="link-ext" unicode="&#xf08e;" d="M786 332v-178q0-67-47-114t-114-47h-464q-67 0-114 47t-47 114v464q0 66 47 113t114 48h393q7 0 12-5t5-13v-36q0-8-5-13t-12-5h-393q-37 0-63-26t-27-63v-464q0-37 27-63t63-27h464q37 0 63 27t26 63v178q0 8 5 13t13 5h36q8 0 13-5t5-13z m214 482v-285q0-15-11-25t-25-11-25 11l-98 98-364-364q-5-6-13-6t-12 6l-64 64q-6 5-6 12t6 13l364 364-98 98q-11 11-11 25t11 25 25 11h285q15 0 25-11t11-25z" horiz-adv-x="1000" />

<glyph glyph-name="check-empty" unicode="&#xf096;" d="M625 707h-464q-37 0-63-26t-27-63v-464q0-37 27-63t63-27h464q37 0 63 27t26 63v464q0 37-26 63t-63 26z m161-89v-464q0-67-47-114t-114-47h-464q-67 0-114 47t-47 114v464q0 66 47 113t114 48h464q66 0 114-48t47-113z" horiz-adv-x="785.7" />

<glyph glyph-name="comment-empty" unicode="&#xf0e5;" d="M500 636q-114 0-213-39t-157-105-59-142q0-62 40-119t113-98l48-28-15-53q-13-51-39-97 85 36 154 96l24 21 32-3q38-5 72-5 114 0 213 39t157 105 59 142-59 142-157 105-213 39z m500-286q0-97-67-179t-182-130-251-48q-39 0-81 4-110-97-257-135-27-8-63-12h-3q-8 0-15 6t-9 15v1q-2 2 0 6t1 6 2 5l4 5t4 5 4 5q4 5 17 19t20 22 17 22 18 28 15 33 15 42q-88 50-138 123t-51 157q0 97 67 179t182 130 251 48 251-48 182-130 67-179z" horiz-adv-x="1000" />

<glyph glyph-name="doc-text" unicode="&#xf0f6;" d="M819 638q16-16 27-42t11-50v-642q0-23-15-38t-38-16h-750q-23 0-38 16t-16 38v892q0 23 16 38t38 16h500q22 0 49-11t42-27z m-248 136v-210h210q-5 17-12 23l-175 175q-6 7-23 12z m215-853v572h-232q-23 0-38 16t-16 37v233h-429v-858h715z m-572 483q0 7 5 12t13 5h393q8 0 13-5t5-12v-36q0-8-5-13t-13-5h-393q-8 0-13 5t-5 13v36z m411-125q8 0 13-5t5-13v-36q0-8-5-13t-13-5h-393q-8 0-13 5t-5 13v36q0 8 5 13t13 5h393z m0-143q8 0 13-5t5-13v-36q0-8-5-13t-13-5h-393q-8 0-13 5t-5 13v36q0 8 5 13t13 5h393z" horiz-adv-x="857.1" />

<glyph glyph-name="plus-squared" unicode="&#xf0fe;" d="M714 314v72q0 14-10 25t-25 10h-179v179q0 15-11 25t-25 11h-71q-15 0-25-11t-11-25v-179h-178q-15 0-25-10t-11-25v-72q0-14 11-25t25-10h178v-179q0-14 11-25t25-11h71q15 0 25 11t11 25v179h179q14 0 25 10t10 25z m143 304v-536q0-66-47-113t-114-48h-535q-67 0-114 48t-47 113v536q0 66 47 113t114 48h535q67 0 114-48t47-113z" horiz-adv-x="857.1" />

<glyph glyph-name="angle-circled-left" unicode="&#xf137;" d="M507 72l57 57q11 10 11 25t-11 25l-171 171 171 171q11 11 11 25t-11 26l-57 57q-10 10-25 10t-25-10l-253-254q-11-10-11-25t11-25l253-253q11-11 25-11t25 11z m350 278q0-117-57-215t-156-156-215-58-216 58-155 156-58 215 58 215 155 156 216 58 215-58 156-156 57-215z" horiz-adv-x="857.1" />

<glyph glyph-name="angle-circled-right" unicode="&#xf138;" d="M400 72l254 253q10 11 10 25t-10 25l-254 254q-10 10-25 10t-25-10l-57-57q-11-11-11-26t11-25l171-171-171-171q-11-11-11-25t11-25l57-57q11-11 25-11t25 11z m457 278q0-117-57-215t-156-156-215-58-216 58-155 156-58 215 58 215 155 156 216 58 215-58 156-156 57-215z" horiz-adv-x="857.1" />

<glyph glyph-name="angle-circled-up" unicode="&#xf139;" d="M650 214l57 57q11 11 11 25t-11 26l-253 253q-11 11-25 11t-25-11l-254-253q-10-11-10-26t10-25l57-57q11-10 25-10t25 10l172 172 171-172q11-10 25-10t25 10z m207 136q0-117-57-215t-156-156-215-58-216 58-155 156-58 215 58 215 155 156 216 58 215-58 156-156 57-215z" horiz-adv-x="857.1" />

<glyph glyph-name="angle-circled-down" unicode="&#xf13a;" d="M454 125l253 254q11 10 11 25t-11 25l-57 57q-10 10-25 10t-25-10l-171-172-172 172q-10 10-25 10t-25-10l-57-57q-10-11-10-25t10-25l254-254q10-10 25-10t25 10z m403 225q0-117-57-215t-156-156-215-58-216 58-155 156-58 215 58 215 155 156 216 58 215-58 156-156 57-215z" horiz-adv-x="857.1" />

<glyph glyph-name="lock-open-alt" unicode="&#xf13e;" d="M589 421q23 0 38-15t16-38v-322q0-22-16-37t-38-16h-535q-23 0-38 16t-16 37v322q0 22 16 38t38 15h17v179q0 103 74 177t176 73 177-73 73-177q0-14-10-25t-25-11h-36q-14 0-25 11t-11 25q0 59-42 101t-101 42-101-42-41-101v-179h410z" horiz-adv-x="642.9" />

<glyph glyph-name="ellipsis-vert" unicode="&#xf142;" d="M214 154v-108q0-22-15-37t-38-16h-107q-23 0-38 16t-16 37v108q0 22 16 38t38 15h107q22 0 38-15t15-38z m0 285v-107q0-22-15-38t-38-15h-107q-23 0-38 15t-16 38v107q0 23 16 38t38 16h107q22 0 38-16t15-38z m0 286v-107q0-22-15-38t-38-16h-107q-23 0-38 16t-16 38v107q0 22 16 38t38 16h107q22 0 38-16t15-38z" horiz-adv-x="214.3" />

<glyph glyph-name="sort-alt-up" unicode="&#xf160;" d="M411 46q0-6-6-13l-178-178q-5-5-13-5-6 0-12 5l-179 179q-8 9-4 19 4 11 17 11h107v768q0 8 5 13t13 5h107q8 0 13-5t5-13v-768h107q8 0 13-5t5-13z m589-71v-107q0-8-5-13t-13-5h-464q-8 0-13 5t-5 13v107q0 8 5 13t13 5h464q8 0 13-5t5-13z m-107 286v-107q0-8-5-13t-13-5h-357q-8 0-13 5t-5 13v107q0 8 5 13t13 5h357q8 0 13-5t5-13z m-107 285v-107q0-7-5-12t-13-6h-250q-8 0-13 6t-5 12v107q0 8 5 13t13 5h250q8 0 13-5t5-13z m-107 286v-107q0-8-5-13t-13-5h-143q-8 0-13 5t-5 13v107q0 8 5 13t13 5h143q8 0 13-5t5-13z" horiz-adv-x="1000" />

<glyph glyph-name="sort-alt-down" unicode="&#xf161;" d="M679-25v-107q0-8-5-13t-13-5h-143q-8 0-13 5t-5 13v107q0 8 5 13t13 5h143q8 0 13-5t5-13z m-268 71q0-6-6-13l-178-178q-5-5-13-5-6 0-12 5l-179 179q-8 9-4 19 4 11 17 11h107v768q0 8 5 13t13 5h107q8 0 13-5t5-13v-768h107q8 0 13-5t5-13z m375 215v-107q0-8-5-13t-13-5h-250q-8 0-13 5t-5 13v107q0 8 5 13t13 5h250q8 0 13-5t5-13z m107 285v-107q0-7-5-12t-13-6h-357q-8 0-13 6t-5 12v107q0 8 5 13t13 5h357q8 0 13-5t5-13z m107 286v-107q0-8-5-13t-13-5h-464q-8 0-13 5t-5 13v107q0 8 5 13t13 5h464q8 0 13-5t5-13z" horiz-adv-x="1000" />

<glyph glyph-name="bitbucket" unicode="&#xf171;" d="M455 371q4-35-28-57t-63-3q-21 9-29 32t-1 46 29 32q20 11 41 7t36-20 15-37z m62 11q-8 60-63 92t-110 7q-35-15-56-49t-20-72q3-51 44-87t92-31q51 4 85 47t28 93z m133 303q-11 15-31 25t-32 12-40 7q-162 26-316-1-24-4-37-7t-30-12-28-24q16-16 42-26t41-12 49-6q127-16 250-1 35 5 50 7t40 12 42 26z m32-578q-4-14-9-42t-7-47-16-39-33-32q-48-27-106-40t-112-12-113 10q-25 5-45 10t-43 15-41 25-29 34q-14 54-31 163l3 9 10 5q124-83 283-83t283 83q12-3 13-13t-3-25-4-21z m101 537q-15-94-62-366-3-17-15-31t-24-23-31-17q-140-70-340-49-139 15-220 78-8 6-14 14t-10 20-5 19-3 22-3 20q-5 27-15 83t-16 90-13 83-12 88q2 14 10 27t17 21 26 17 25 12 27 10q70 26 175 36 211 21 377-28 86-25 120-68 9-11 9-28t-3-30z" horiz-adv-x="785.7" />

<glyph glyph-name="linux" unicode="&#xf17c;" d="M370 621q-6-1-9-6t-4-5q-3-1-3 2 0 7 10 9h6z m49-8q-3-1-7 4t-10 2q14 6 18-1 2-3-1-5z m-196-238q-3 0-4-2t-2-7-3-8-6-7q-5-6 0-7 2 0 7 4t7 10q0 2 1 4t1 4 1 2 0 2v2t-1 1-1 2z m477-201q0 10-31 24 2 8 4 15t3 15 2 12 0 12 0 11-2 12-3 12-2 14-4 14q-5 27-26 58t-40 42q13-11 32-47 48-90 30-155-6-22-28-23-17-2-21 10t-5 47-6 60q-5 21-11 38t-11 25-9 14-7 8-4 4q-8 35-17 58t-17 31-13 19-8 22q-3 12 3 30t2 27-24 14q-9 2-25 10t-20 9q-4 1-6 15t4 28 20 15q21 2 29-16t2-33q-6-10-1-15t17 0q7 2 7 20v21q-3 17-8 28t-11 17-13 8-15 4q-60-4-50-74 0-9-1-9-5 5-16 6t-19 0-8 3q0 31-9 50t-25 19q-15 0-23-16t-10-33q0-8 2-20t8-21 8-8q6 2 9 8 2 5-4 4-4 0-8 8t-6 19q0 12 5 21t19 8q10 0 15-12t6-22-1-12q-12-9-17-16-5-7-16-13t-11-7q-7-8-9-16t4-10q8-4 14-10t9-11 11-7 19-4q27-1 57 8 1 1 13 4t19 6 17 7 12 10q5 8 11 5 2-2 3-5t-1-7-10-5q-11-3-31-12t-25-11q-25-11-40-13-14-3-44 1-5 1-5-1t10-10q14-13 37-13 10 1 20 4t20 8 19 10 17 9 13 7 10 1 5-6q0-1-1-2t-2-3-3-3-5-2-5-3-5-3-6-2q-15-8-37-25t-38-24-27 0q-12 6-35 41-12 17-14 12-1-2-1-6 0-14-8-31t-16-31-12-33 6-35q-13-3-35-50t-26-79q-1-10-1-38t-3-33q-4-14-16-2-18 17-20 53-1 15 2 31 2 10-1 10-1-1-2-3-20-36 6-92 3-7 14-16t13-11q11-13 58-51t52-42q9-9 10-22t-8-24-25-13q4-8 16-24t15-31 4-39q26 13 4 51-2 5-6 9t-5 7-1 3q2 3 7 6t11-2q26-29 93-20 74 9 99 49 13 21 19 17 6-4 5-30 0-13-13-51-5-13-3-21t14-8q1 10 8 43t7 50q1 12-3 41t-5 54 13 39q9 10 29 10 0 21 19 30t40 6 34-13z m-351 462q2 9-1 17t-6 8q-5 1-5-4 1-3 2-3 6 0 4-9-1-11 5-11 1 0 1 2z m234-110q-1 4-3 6t-8 3-8 3q-3 2-5 5t-4 4-3 4-2 2-3-1q-7-9 4-24t22-18q5 0 8 5t2 11z m-99 119q0 6-3 11t-6 7-5 1q-3 0-5-1t0-2 3-2q8-2 10-17 0-2 5 1 1 1 1 2z m30 130q0 1-1 3t-5 3-6 4q-8 8-13 8-5 0-7-4t0-7 0-7q-1-3-4-6t-3-5 2-5q2-2 4 0t6 5 9 5q0 1 5 1t8 1 5 4z m315-749q11-6 18-13t6-14-1-12-9-13-13-10-17-11-17-9-18-9-15-7q-21-11-48-31t-42-36q-9-9-38-11t-50 8q-10 5-16 13t-9 15-13 11-26 5q-24 0-72 0-11 0-32 0t-32-2q-25 0-45-8t-30-17-24-16-30-6q-16 0-62 17t-81 24q-11 2-29 5t-28 5-22 6-18 8-10 11q-5 12 4 37t10 30q1 9-2 23t-6 23-2 21 6 15q7 6 31 8t34 6q17 10 23 20t7 28q12-41-18-59-18-11-46-8-19 1-24-6-7-8 3-32 1-3 4-10t5-10 2-9 1-13q0-8-9-27t-8-27q1-9 20-14 12-4 47-11t56-11q13-3 41-12t46-13 31-2q24 3 36 15t13 27-4 33-11 29-11 20q-67 106-94 135-38 42-63 23-6-5-9 8-1 9-1 21 1 16 6 29t13 26 13 24q4 12 14 40t17 43 17 35 21 30q62 79 70 108-7 63-9 173-1 51 13 85t59 58q22 12 58 12 30 1 59-7t50-24q32-23 51-67t17-83q-3-53 16-119 19-63 75-122 30-33 55-91t33-106q5-28 3-48t-7-30-11-13q-5-1-13-10t-15-20-23-19-34-8q-10 1-17 3t-13 8-7 8-7 12-5 11q-12 20-23 16t-15-27 4-54q11-39 0-109-5-36 10-56t41-19 47 20q33 28 50 37t58 24q30 10 43 20t10 20-14 16-28 13q-19 6-28 27t-8 40 8 27q1-18 5-32t8-23 11-15 12-11 12-7 9-6z" horiz-adv-x="857.1" />

<glyph glyph-name="dot-circled" unicode="&#xf192;" d="M571 350q0-59-41-101t-101-42-101 42-42 101 42 101 101 42 101-42 41-101z m-142 304q-83 0-153-41t-110-111-41-152 41-152 110-111 153-41 152 41 110 111 41 152-41 152-110 111-152 41z m428-304q0-117-57-215t-156-156-215-58-216 58-155 156-58 215 58 215 155 156 216 58 215-58 156-156 57-215z" horiz-adv-x="857.1" />

<glyph glyph-name="plus-squared-alt" unicode="&#xf196;" d="M643 404v-36q0-8-5-13t-13-5h-196v-196q0-8-5-13t-13-5h-36q-8 0-13 5t-5 13v196h-196q-8 0-13 5t-5 13v36q0 7 5 12t13 5h196v197q0 8 5 13t13 5h36q8 0 13-5t5-13v-197h196q8 0 13-5t5-12z m71-250v464q0 37-26 63t-63 26h-464q-37 0-63-26t-27-63v-464q0-37 27-63t63-27h464q37 0 63 27t26 63z m72 464v-464q0-67-47-114t-114-47h-464q-67 0-114 47t-47 114v464q0 66 47 113t114 48h464q66 0 114-48t47-113z" horiz-adv-x="785.7" />

<glyph glyph-name="fax" unicode="&#xf1ac;" d="M161 636q37 0 63-26t26-64v-607q0-37-26-63t-63-26h-72q-36 0-63 26t-26 63v607q0 37 26 64t63 26h72z m768-91q32-19 52-52t19-72v-428q0-59-42-101t-101-42h-482q-37 0-63 26t-26 63v857q0 23 15 38t38 16h375q23 0 49-11t43-27l85-85q15-15 26-42t12-49v-91z m-411-552v71q0 8-5 13t-13 5h-71q-8 0-13-5t-5-13v-71q0-8 5-13t13-5h71q8 0 13 5t5 13z m0 143v71q0 8-5 13t-13 5h-71q-8 0-13-5t-5-13v-71q0-8 5-13t13-5h71q8 0 13 5t5 13z m0 143v71q0 8-5 13t-13 5h-71q-8 0-13-5t-5-13v-71q0-8 5-13t13-5h71q8 0 13 5t5 13z m143-286v71q0 8-5 13t-13 5h-72q-7 0-12-5t-5-13v-71q0-8 5-13t12-5h72q8 0 13 5t5 13z m0 143v71q0 8-5 13t-13 5h-72q-7 0-12-5t-5-13v-71q0-8 5-13t12-5h72q8 0 13 5t5 13z m0 143v71q0 8-5 13t-13 5h-72q-7 0-12-5t-5-13v-71q0-8 5-13t12-5h72q8 0 13 5t5 13z m143-286v71q0 8-5 13t-13 5h-72q-7 0-12-5t-6-13v-71q0-8 6-13t12-5h72q8 0 13 5t5 13z m0 143v71q0 8-5 13t-13 5h-72q-7 0-12-5t-6-13v-71q0-8 6-13t12-5h72q8 0 13 5t5 13z m0 143v71q0 8-5 13t-13 5h-72q-7 0-12-5t-6-13v-71q0-8 6-13t12-5h72q8 0 13 5t5 13z m53 214v143h-89q-22 0-38 15t-16 38v90h-357v-286h500z" horiz-adv-x="1000" />

<glyph glyph-name="sliders" unicode="&#xf1de;" d="M196 64v-71h-196v71h196z m197 72q14 0 25-11t11-25v-143q0-14-11-25t-25-11h-143q-14 0-25 11t-11 25v143q0 15 11 25t25 11h143z m89 214v-71h-482v71h482z m-357 286v-72h-125v72h125z m732-572v-71h-411v71h411z m-536 643q15 0 26-10t10-26v-142q0-15-10-25t-26-11h-142q-15 0-25 11t-11 25v142q0 15 11 26t25 10h142z m358-286q14 0 25-10t10-25v-143q0-15-10-25t-25-11h-143q-15 0-25 11t-11 25v143q0 14 11 25t25 10h143z m178-71v-71h-125v71h125z m0 286v-72h-482v72h482z" horiz-adv-x="857.1" />

<glyph glyph-name="share" unicode="&#xf1e0;" d="M679 279q74 0 126-53t52-126-52-126-126-53-127 53-52 126q0 7 1 19l-201 100q-51-48-121-48-75 0-127 53t-52 126 52 126 127 53q70 0 121-48l201 100q-1 12-1 19 0 74 52 126t127 53 126-53 52-126-52-126-126-53q-71 0-122 48l-201-100q1-12 1-19t-1-19l201-100q51 48 122 48z" horiz-adv-x="857.1" />

<glyph glyph-name="calc" unicode="&#xf1ec;" d="M214-7q0 29-21 50t-50 21-51-21-21-50 21-51 51-21 50 21 21 51z m215 0q0 29-21 50t-51 21-50-21-21-50 21-51 50-21 51 21 21 51z m-215 214q0 30-21 51t-50 21-51-21-21-51 21-50 51-21 50 21 21 50z m429-214q0 29-21 50t-51 21-50-21-21-50 21-51 50-21 51 21 21 51z m-214 214q0 30-21 51t-51 21-50-21-21-51 21-50 50-21 51 21 21 50z m-215 214q0 30-21 51t-50 21-51-21-21-51 21-50 51-21 50 21 21 50z m429-214q0 30-21 51t-51 21-50-21-21-51 21-50 50-21 51 21 21 50z m-214 214q0 30-21 51t-51 21-50-21-21-51 21-50 50-21 51 21 21 50z m428-428v214q0 29-21 50t-50 22-50-22-22-50v-214q0-29 22-50t50-22 50 22 21 50z m-214 428q0 30-21 51t-51 21-50-21-21-51 21-50 50-21 51 21 21 50z m214 179v143q0 14-10 25t-26 11h-714q-14 0-25-11t-11-25v-143q0-14 11-25t25-11h714q15 0 26 11t10 25z m0-179q0 30-21 51t-50 21-51-21-21-51 21-50 51-21 50 21 21 50z m72 358v-858q0-29-22-50t-50-21h-786q-29 0-50 21t-21 50v858q0 29 21 50t50 21h786q29 0 50-21t22-50z" horiz-adv-x="1000" />

<glyph glyph-name="bell-off-empty" unicode="&#xf1f7;" d="M580-96q0 8-9 8-32 0-56 24t-24 57q0 9-9 9t-9-9q0-41 29-70t69-28q9 0 9 9z m-299 265l489 424q-23 49-74 82t-125 32q-51 0-94-17t-68-45-38-58-14-58q0-215-76-360z m755-105q0-29-21-50t-51-21h-250q0-59-42-101t-101-42-100 42-42 100l83 72h422q-92 105-126 256l61 55q35-199 167-311z m48 777l47-53q4-6 4-14t-6-12l-1045-905q-5-5-13-4t-12 6l-47 53q-4 6-4 14t6 12l104 90q-11 17-11 36 28 24 51 49t47 67 42 89 28 115 11 145q0 84 65 157t171 89q-4 10-4 21 0 23 16 38t37 16 38-16 16-38q0-11-4-21 69-10 122-46t82-88l234 202q5 5 13 4t12-6z" horiz-adv-x="1142.9" />

<glyph glyph-name="toggle-off" unicode="&#xf204;" d="M643 350q0 58-23 111t-61 91-91 61-111 23-111-23-91-61-61-91-23-111 23-111 61-91 91-61 111-23 111 23 91 61 61 91 23 111z m428 0q0 58-22 111t-61 91-91 61-111 23h-216q67-50 106-125t38-161-38-161-106-125h216q58 0 111 23t91 61 61 91 22 111z m72 0q0-72-29-139t-76-113-114-77-138-28h-429q-72 0-138 28t-114 77-76 113-29 139 29 139 76 114 114 76 138 28h429q72 0 138-28t114-76 76-114 29-139z" horiz-adv-x="1142.9" />

<glyph glyph-name="toggle-on" unicode="&#xf205;" d="M0 350q0 73 29 139t76 114 114 76 138 28h429q72 0 138-28t114-76 76-114 29-139-29-139-76-113-114-77-138-28h-429q-72 0-138 28t-114 77-76 113-29 139z m786-286q58 0 111 23t91 61 61 91 22 111-22 111-61 91-91 61-111 23-111-23-91-61-61-91-23-111 23-111 61-91 91-61 111-23z" horiz-adv-x="1142.9" />

<glyph glyph-name="safari" unicode="&#xf267;" d="M530 352q0-15-10-25t-23-11q-14 0-25 9t-10 23q0 15 9 25t23 11 25-9 11-23z m8-33l195 325q-5-5-37-35t-70-65-77-71-65-62-28-29l-195-323q4 4 38 34t70 65 76 71 65 62 28 28z m361 31q0-112-58-207-2 1-9 6t-15 9-9 5q-8 0-8-8 0-5 33-24-41-63-103-107t-135-61l-8 37q-1 6-9 6-3 0-4-3t-1-6l9-38q-41-8-82-8-111 0-208 59 1 1 8 11t12 19 5 10q0 8-7 8-4 0-10-8t-12-20-8-13q-63 42-107 105t-61 137l38 8q6 2 6 8 0 3-3 5t-6 1l-38-9q-8 41-8 78 0 115 61 212 1-1 10-7t17-11 10-4q7 0 7 6 0 4-7 9t-18 12l-11 7q43 62 105 105t136 60l9-37q1-6 8-6 3 0 5 3t1 6l-9 37q40 7 75 7 114 0 212-61-22-31-22-36 0-7 6-7 7 0 27 35 62-41 105-103t60-135l-31-7q-6-1-6-8 0-3 3-5t5-1l32 7q8-40 8-78z m47 0q0 91-35 174t-95 142-142 95-174 35-173-35-143-95-95-142-35-174 35-173 95-143 143-95 173-35 174 35 142 95 95 143 35 173z m54 0q0-102-40-194t-106-160-160-106-194-40-194 40-160 106-106 160-40 194 40 194 106 160 160 106 194 40 194-40 160-106 106-160 40-194z" horiz-adv-x="1000" />

<glyph glyph-name="chrome" unicode="&#xf268;" d="M498 850q134 1 252-67 130-75 196-208l-414 22q-89 5-164-41t-103-128l-154 236q72 89 174 137t213 49z m-416-226l188-370q40-80 117-121t164-25l-129-252q-118 19-214 88t-152 176-56 230q0 149 82 274z m885-94q32-84 33-174t-27-170-86-152-137-117q-128-74-278-66l226 347q49 73 46 162t-59 155z m-467-11q70 0 119-50t50-119-50-119-119-49-119 49-49 119 49 119 119 50z" horiz-adv-x="1000" />

<glyph glyph-name="firefox" unicode="&#xf269;" d="M504-150q-158 0-282 84t-183 222q-33 74-38 168t15 186 62 174 100 135l-7-156q7 7 38 8t39-8q24 45 90 77t131 32q-30-25-67-82t-33-92q14-4 35-7t36-4 37-3 29-1q8-3 5-26t-17-42q-3-4-9-10t-32-20-56-19l8-105-77 37q-10-24-5-45t21-38 36-23 45-3q29 5 55 19t47 25 41 10q34-2 50-19t10-36q0-1-1-3t-5-7-10-9-17-5-26-1q-34-53-81-76t-117-16q41-34 91-46t94-3 86 29 71 48 45 58q24 51 22 108t-21 105-44 70q49-21 77-45t43-62q8 95-32 191t-117 159q148-43 230-156t84-289q1-71-23-143t-68-132-106-110-138-75-161-28z" horiz-adv-x="1000" />

<glyph glyph-name="calendar-1" unicode="&#xf4c5;" d="M0-31v761q0 37 26 62t62 26h762q36 0 61-26t26-62v-761q0-36-26-62t-61-26h-762q-36 0-62 26t-26 62z m88 0h762v527h-762v-527z m60 59v175h176v-175h-176z m0 234v176h176v-176h-176z m235-234v175h175v-175h-175z m0 234v176h175v-176h-175z m234-234v175h176v-175h-176z m0 234v176h176v-176h-176z" horiz-adv-x="937.5" />

<glyph glyph-name="search-1" unicode="&#xf50d;" d="M11 375q-23 87 0 173t87 150q48 49 110 74t128 25q65 0 127-25t110-74q52-52 77-119t21-137-36-132q28-8 49-29l174-173q35-35 35-85t-35-85q-35-35-85-35t-85 35l-173 174q-22 20-30 49-70-35-149-35-66 0-128 25t-110 73q-64 64-87 151z m101 86q0-93 65-158 66-65 159-65 92 0 157 65t66 158-66 158q-66 66-157 66-92 0-159-66-65-65-65-158z" horiz-adv-x="892.6" />
</font>
</defs>
</svg>